# Blender 3.1.0 Beta MTL File: 'IZU_panda.blend'
# www.blender.org

newmtl table_dark
Ns 204.648529
Ka 1.000000 1.000000 1.000000
Kd 0.273835 0.126176 0.060421
Ks 0.238095 0.238095 0.238095
Ke 0.000000 0.000000 0.000000
Ni 1.450000
d 1.000000
illum 2

newmtl table_light
Ns 136.196167
Ka 1.000000 1.000000 1.000000
Kd 0.496927 0.288260 0.123297
Ks 0.500000 0.500000 0.500000
Ke 0.000000 0.000000 0.000000
Ni 1.450000
d 1.000000
illum 2

newmtl table_mid
Ns 56.689339
Ka 1.000000 1.000000 1.000000
Kd 0.496927 0.300293 0.116193
Ks 0.309524 0.309524 0.309524
Ke 0.000000 0.000000 0.000000
Ni 1.450000
d 1.000000
illum 2
